{
  "name": "<%= _.slugify(appName) %>",
  "version": "0.0.1",
  "dependencies": {<% if ( lessBootstrap ) { %>
    "bootstrap": "3.0.x",<% } %><% if ( includeEnquire ) { %>
    "enquire": "2.0.0",<% } %>
    "jquery": "~1.9.1"
  }
}